[
  {
    "id": 1,
    "active": true,
    "type": "button",
    "answer": "Type de séance :",
    "data": [
      {
        "key": 0,
        "value": "Entrainement",
        "active": false
      },
      {
        "key": 1,
        "value": "Technique",
        "active": false
      },
      {
        "key": 2,
        "value": "Compétition",
        "active": false
      },
      {
        "key": 3,
        "value": "Préparation Physique",
        "active": false
      },
      {
        "key": 4,
        "value": "Rééducation",
        "active": false
      },
      {
        "key": 5,
        "value": "Réathlétisation",
        "active": false
      }
    ]
  },
  {
    "id": 6,
    "active": true,
    "type": "slider",
    "answer": "Sur ta précédente séance, quel a été ta perception de l'effort ? ",
    "data": [
      {
        "key": 0,
        "value": "Repos",
        "active": false
      },
      {
        "key": 1,
        "value": "Très très léger",
        "active": false
      },
      {
        "key": 2,
        "value": "Très léger",
        "active": false
      },
      {
        "key": 3,
        "value": "Assez léger",
        "active": false
      },
      {
        "key": 4,
        "value": "Modéré",
        "active": false
      },
      {
        "key": 5,
        "value": "Un peu difficile",
        "active": false
      },
      {
        "key": 6,
        "value": "Difficile",
        "active": false
      },
      {
        "key": 7,
        "value": "Très difficile",
        "active": false
      },
      {
        "key": 8,
        "value": "Très très difficile",
        "active": false
      },
      {
        "key": 9,
        "value": "Extrènement difficile",
        "active": false
      },
      {
        "key": 10,
        "value": "Maximal",
        "active": false
      }
    ]
  },
  {
    "id": 7,
    "active": true,
    "type": "slider",
    "answer": "As tu pris du plaisir sur cette séance ? ",
    "data": [
      {
        "key": 0,
        "value": "Pire session de ma vie",
        "active": false
      },
      {
        "key": 1,
        "value": "J'ai détesté",
        "active": false
      },
      {
        "key": 2,
        "value": "Je n'ai pas vraiment aimé",
        "active": false
      },
      {
        "key": 3,
        "value": "Je n'ai pas aimé",
        "active": false
      },
      {
        "key": 4,
        "value": "Normal",
        "active": false
      },
      {
        "key": 5,
        "value": "J'ai un peu aimé",
        "active": false
      },
      {
        "key": 6,
        "value": "J'ai aimé",
        "active": false
      },
      {
        "key": 7,
        "value": "J'ai vraiment aimé",
        "active": false
      },
      {
        "key": 8,
        "value": "J'ai adoré",
        "active": false
      },
      {
        "key": 9,
        "value": "Meilleure session de vie",
        "active": false
      },
      {
        "key": 10,
        "value": "Maximum de plaisir",
        "active": false
      }
    ]
  },
  {
    "id": 2,
    "active": true,
    "type": "slider",
    "categorie": "sommeil",
    "answer": "Qualité de sommeil de la nuit précédente ?",
    "data": [
      {
        "key": 0,
        "value": "Mauvaise",
        "active": false
      },
      {
        "key": 1,
        "value": "Pas bonne du tout",
        "active": false
      },
      {
        "key": 2,
        "value": "Pas bonne",
        "active": false
      },
      {
        "key": 3,
        "value": "Mal dormi",
        "active": false
      },
      {
        "key": 4,
        "value": 4,
        "active": false
      },
      {
        "key": 5,
        "value": "Normale",
        "active": false
      },
      {
        "key": 6,
        "value": "Bonne",
        "active": false
      },
      {
        "key": 7,
        "value": "Très bonne",
        "active": false
      },
      {
        "key": 8,
        "value": "Bien dormi",
        "active": false
      },
      {
        "key": 9,
        "value": "Dormi comme une bébé",
        "active": false
      },
      {
        "key": 10,
        "value": "Excellente",
        "active": false
      }
    ]
  },
  {
    "id": 3,
    "active": true,
    "categorie": "sommeil",
    "type": "slider",
    "answer": "Combien d'heures de sommeil ?",
    "data": [
      {
        "key": 0,
        "value": 0,
        "active": false
      },
      {
        "key": 1,
        "value": 1,
        "active": false
      },
      {
        "key": 2,
        "value": 2,
        "active": false
      },
      {
        "key": 3,
        "value": 3,
        "active": false
      },
      {
        "key": 4,
        "value": 4,
        "active": false
      },
      {
        "key": 5,
        "value": 5,
        "active": false
      },
      {
        "key": 6,
        "value": 6,
        "active": false
      },
      {
        "key": 7,
        "value": 7,
        "active": false
      },
      {
        "key": 8,
        "value": 8,
        "active": false
      },
      {
        "key": 9,
        "value": 9,
        "active": false
      },
      {
        "key": 10,
        "value": 10,
        "active": false
      }
    ]
  },
  {
    "id": 4,
    "type": "slider",
    "active": true,
    "categorie": "sommeil",
    "answer": "Quel est le niveau de fatigue ce matin ?",
    "data": [
      {
        "key": 0,
        "value": "Aucune fatigue",
        "active": false
      },
      {
        "key": 1,
        "value": "Fatigue minime",
        "active": false
      },
      {
        "key": 2,
        "value": "Moins que la normal",
        "active": false
      },
      {
        "key": 3,
        "value": "Normale",
        "active": false
      },
      {
        "key": 4,
        "value": "Pire que la normale",
        "active": false
      },
      {
        "key": 5,
        "value": "Très fatigué",
        "active": false
      },
      {
        "key": 6,
        "value": "Epuisé",
        "active": false
      }
    ]
  },
  {
    "id": 8,
    "type": "slider",
    "active": true,
    "answer": "Quel est ton état de santé de manière général ?",
    "data": [
      {
        "key": 0,
        "value": "Très très mauvais",
        "active": false
      },
      {
        "key": 1,
        "value": "Très mauvais",
        "active": false
      },
      {
        "key": 2,
        "value": "Mauvais",
        "active": false
      },
      {
        "key": 3,
        "value": "Normal",
        "active": false
      },
      {
        "key": 4,
        "value": "Bon",
        "active": false
      },
      {
        "key": 5,
        "value": "Bon",
        "active": false
      },
      {
        "key": 6,
        "value": "Très bon",
        "active": false
      },
      {
        "key": 7,
        "value": "Excellent",
        "active": false
      }
    ]
  },
  {
    "id": 5,
    "type": "button",
    "active": true,
    "categorie": "douleur",
    "answer": "Ressens-tu des douleurs musculaires ?",
    "data": [
      {
        "key": 0,
        "value": "Non",
        "active": false
      },
      {
        "key": 1,
        "value": "Oui",
        "active": false
      }
    ]
  },
  {
    "id": 9,
    "type": "button",
    "active": true,
    "categorie": "douleur",
    "answer": "Blessures ou courbatures ?",
    "data": [
      {
        "key": 0,
        "value": "Blessures",
        "active": false
      },
      {
        "key": 1,
        "value": "Courbatures",
        "active": false
      }
    ]
  },
  {
    "id": 10,
    "type": "select",
    "active": true,
    "categorie": "douleur",
    "answer": "A quel endroit ressens-tu ton (tes) douleurs ?",
    "data": [
      { "key": 0, "value": "--Tête--", "active": true },
      { "key": 1, "value": "Tête", "active": false },
      { "key": 2, "value": "Visage", "active": false },
      { "key": 3, "value": "Cou", "active": false },
      {
        "key": 4,
        "value": "--Membre supérieur--",
        "active": true
      },
      { "key": 5, "value": "Epaule droite", "active": false },
      { "key": 6, "value": "Epaule gauche", "active": false },
      { "key": 7, "value": "Buste", "active": true },
      { "key": 8, "value": "Poitrine", "active": false },
      { "key": 9, "value": "Dos", "active": false },
      { "key": 10, "value": "Lombaires", "active": false },
      {
        "key": 11,
        "value": "--Membre inférieur--",
        "active": true
      },
      { "key": 12, "value": "Quadriceps droit", "active": false },
      { "key": 13, "value": "Quadriceps gauche", "active": false }
    ]
  },
  {
    "id": 11,
    "active": true,
    "type": "button",
    "answer": "Est ce tu t'es entrainé ?",
    "data": [
      {
        "key": 0,
        "value": "Non",
        "active": false
      },
      {
        "key": 1,
        "value": "Oui",
        "active": false
      }
    ]
  }
]
